^D:\USERS\MJ9617\DOCUMENTS\VISUAL STUDIO 2013\PROJECTS\OPENGL-BOOK\DEPS\SIMPLE OPENGL IMAGE LIBRARY\SRC\IMAGE_DXT.C
/c /ZI /nologo /W3 /WX- /Od /Oy- /D WIN32 /D _DEBUG /D _LIB /D _UNICODE /D UNICODE /Gm /EHsc /RTC1 /MDd /GS /fp:precise /Zc:wchar_t /Zc:forScope /Fo"DEBUG\\" /Fd"DEBUG\VC120.PDB" /Gd /TC /analyze- D:\USERS\MJ9617\DOCUMENTS\VISUAL STUDIO 2013\PROJECTS\OPENGL-BOOK\DEPS\SIMPLE OPENGL IMAGE LIBRARY\SRC\IMAGE_DXT.C
^D:\USERS\MJ9617\DOCUMENTS\VISUAL STUDIO 2013\PROJECTS\OPENGL-BOOK\DEPS\SIMPLE OPENGL IMAGE LIBRARY\SRC\IMAGE_HELPER.C
/c /ZI /nologo /W3 /WX- /Od /Oy- /D WIN32 /D _DEBUG /D _LIB /D _UNICODE /D UNICODE /Gm /EHsc /RTC1 /MDd /GS /fp:precise /Zc:wchar_t /Zc:forScope /Fo"DEBUG\\" /Fd"DEBUG\VC120.PDB" /Gd /TC /analyze- D:\USERS\MJ9617\DOCUMENTS\VISUAL STUDIO 2013\PROJECTS\OPENGL-BOOK\DEPS\SIMPLE OPENGL IMAGE LIBRARY\SRC\IMAGE_HELPER.C
^D:\USERS\MJ9617\DOCUMENTS\VISUAL STUDIO 2013\PROJECTS\OPENGL-BOOK\DEPS\SIMPLE OPENGL IMAGE LIBRARY\SRC\SOIL.C
/c /ZI /nologo /W3 /WX- /Od /Oy- /D WIN32 /D _DEBUG /D _LIB /D _UNICODE /D UNICODE /Gm /EHsc /RTC1 /MDd /GS /fp:precise /Zc:wchar_t /Zc:forScope /Fo"DEBUG\\" /Fd"DEBUG\VC120.PDB" /Gd /TC /analyze- D:\USERS\MJ9617\DOCUMENTS\VISUAL STUDIO 2013\PROJECTS\OPENGL-BOOK\DEPS\SIMPLE OPENGL IMAGE LIBRARY\SRC\SOIL.C
^D:\USERS\MJ9617\DOCUMENTS\VISUAL STUDIO 2013\PROJECTS\OPENGL-BOOK\DEPS\SIMPLE OPENGL IMAGE LIBRARY\SRC\STB_IMAGE_AUG.C
/c /ZI /nologo /W3 /WX- /Od /Oy- /D WIN32 /D _DEBUG /D _LIB /D _UNICODE /D UNICODE /Gm /EHsc /RTC1 /MDd /GS /fp:precise /Zc:wchar_t /Zc:forScope /Fo"DEBUG\\" /Fd"DEBUG\VC120.PDB" /Gd /TC /analyze- D:\USERS\MJ9617\DOCUMENTS\VISUAL STUDIO 2013\PROJECTS\OPENGL-BOOK\DEPS\SIMPLE OPENGL IMAGE LIBRARY\SRC\STB_IMAGE_AUG.C
