^\\BANNER.MAIN.AD.RIT.EDU\STUDENTS\SXT5244\IGMPROFILE\DESKTOP\FLUID-SIMULATION\FLUIDSIMULATION\CAMERA.CPP|\\BANNER.MAIN.AD.RIT.EDU\STUDENTS\SXT5244\IGMPROFILE\DESKTOP\FLUID-SIMULATION\FLUIDSIMULATION\CIRCLE.CPP|\\BANNER.MAIN.AD.RIT.EDU\STUDENTS\SXT5244\IGMPROFILE\DESKTOP\FLUID-SIMULATION\FLUIDSIMULATION\GAME.CPP|\\BANNER.MAIN.AD.RIT.EDU\STUDENTS\SXT5244\IGMPROFILE\DESKTOP\FLUID-SIMULATION\FLUIDSIMULATION\GLSLSHADER.CPP|\\BANNER.MAIN.AD.RIT.EDU\STUDENTS\SXT5244\IGMPROFILE\DESKTOP\FLUID-SIMULATION\FLUIDSIMULATION\GRIDCELL.CPP|\\BANNER.MAIN.AD.RIT.EDU\STUDENTS\SXT5244\IGMPROFILE\DESKTOP\FLUID-SIMULATION\FLUIDSIMULATION\INPUTHANDLER.CPP|\\BANNER.MAIN.AD.RIT.EDU\STUDENTS\SXT5244\IGMPROFILE\DESKTOP\FLUID-SIMULATION\FLUIDSIMULATION\MAIN.CPP|\\BANNER.MAIN.AD.RIT.EDU\STUDENTS\SXT5244\IGMPROFILE\DESKTOP\FLUID-SIMULATION\FLUIDSIMULATION\MESH.CPP|\\BANNER.MAIN.AD.RIT.EDU\STUDENTS\SXT5244\IGMPROFILE\DESKTOP\FLUID-SIMULATION\FLUIDSIMULATION\SQUARE.CPP|\\BANNER.MAIN.AD.RIT.EDU\STUDENTS\SXT5244\IGMPROFILE\DESKTOP\FLUID-SIMULATION\FLUIDSIMULATION\WINDOW.CPP
\\BANNER.MAIN.AD.RIT.EDU\STUDENTS\SXT5244\IGMPROFILE\DESKTOP\FLUID-SIMULATION\FLUIDSIMULATION\DEBUG\VC120.PDB
\\BANNER.MAIN.AD.RIT.EDU\STUDENTS\SXT5244\IGMPROFILE\DESKTOP\FLUID-SIMULATION\FLUIDSIMULATION\DEBUG\VC120.IDB
\\BANNER.MAIN.AD.RIT.EDU\STUDENTS\SXT5244\IGMPROFILE\DESKTOP\FLUID-SIMULATION\FLUIDSIMULATION\DEBUG\CAMERA.OBJ
\\BANNER.MAIN.AD.RIT.EDU\STUDENTS\SXT5244\IGMPROFILE\DESKTOP\FLUID-SIMULATION\FLUIDSIMULATION\DEBUG\CIRCLE.OBJ
\\BANNER.MAIN.AD.RIT.EDU\STUDENTS\SXT5244\IGMPROFILE\DESKTOP\FLUID-SIMULATION\FLUIDSIMULATION\DEBUG\GAME.OBJ
\\BANNER.MAIN.AD.RIT.EDU\STUDENTS\SXT5244\IGMPROFILE\DESKTOP\FLUID-SIMULATION\FLUIDSIMULATION\DEBUG\GLSLSHADER.OBJ
\\BANNER.MAIN.AD.RIT.EDU\STUDENTS\SXT5244\IGMPROFILE\DESKTOP\FLUID-SIMULATION\FLUIDSIMULATION\DEBUG\GRIDCELL.OBJ
\\BANNER.MAIN.AD.RIT.EDU\STUDENTS\SXT5244\IGMPROFILE\DESKTOP\FLUID-SIMULATION\FLUIDSIMULATION\DEBUG\INPUTHANDLER.OBJ
\\BANNER.MAIN.AD.RIT.EDU\STUDENTS\SXT5244\IGMPROFILE\DESKTOP\FLUID-SIMULATION\FLUIDSIMULATION\DEBUG\MAIN.OBJ
\\BANNER.MAIN.AD.RIT.EDU\STUDENTS\SXT5244\IGMPROFILE\DESKTOP\FLUID-SIMULATION\FLUIDSIMULATION\DEBUG\MESH.OBJ
\\BANNER.MAIN.AD.RIT.EDU\STUDENTS\SXT5244\IGMPROFILE\DESKTOP\FLUID-SIMULATION\FLUIDSIMULATION\DEBUG\SQUARE.OBJ
\\BANNER.MAIN.AD.RIT.EDU\STUDENTS\SXT5244\IGMPROFILE\DESKTOP\FLUID-SIMULATION\FLUIDSIMULATION\DEBUG\WINDOW.OBJ
^\\BANNER.MAIN.AD.RIT.EDU\STUDENTS\SXT5244\IGMPROFILE\DESKTOP\FLUID-SIMULATION\FLUIDSIMULATION\CAMERA.CPP
\\BANNER.MAIN.AD.RIT.EDU\STUDENTS\SXT5244\IGMPROFILE\DESKTOP\FLUID-SIMULATION\FLUIDSIMULATION\DEBUG\VC120.PDB
^\\BANNER.MAIN.AD.RIT.EDU\STUDENTS\SXT5244\IGMPROFILE\DESKTOP\FLUID-SIMULATION\FLUIDSIMULATION\CIRCLE.CPP
\\BANNER.MAIN.AD.RIT.EDU\STUDENTS\SXT5244\IGMPROFILE\DESKTOP\FLUID-SIMULATION\FLUIDSIMULATION\DEBUG\VC120.PDB
^\\BANNER.MAIN.AD.RIT.EDU\STUDENTS\SXT5244\IGMPROFILE\DESKTOP\FLUID-SIMULATION\FLUIDSIMULATION\GAME.CPP
\\BANNER.MAIN.AD.RIT.EDU\STUDENTS\SXT5244\IGMPROFILE\DESKTOP\FLUID-SIMULATION\FLUIDSIMULATION\DEBUG\VC120.PDB
^\\BANNER.MAIN.AD.RIT.EDU\STUDENTS\SXT5244\IGMPROFILE\DESKTOP\FLUID-SIMULATION\FLUIDSIMULATION\GLSLSHADER.CPP
\\BANNER.MAIN.AD.RIT.EDU\STUDENTS\SXT5244\IGMPROFILE\DESKTOP\FLUID-SIMULATION\FLUIDSIMULATION\DEBUG\VC120.PDB
^\\BANNER.MAIN.AD.RIT.EDU\STUDENTS\SXT5244\IGMPROFILE\DESKTOP\FLUID-SIMULATION\FLUIDSIMULATION\GRIDCELL.CPP
\\BANNER.MAIN.AD.RIT.EDU\STUDENTS\SXT5244\IGMPROFILE\DESKTOP\FLUID-SIMULATION\FLUIDSIMULATION\DEBUG\VC120.PDB
\\BANNER.MAIN.AD.RIT.EDU\STUDENTS\SXT5244\IGMPROFILE\DESKTOP\FLUID-SIMULATION\FLUIDSIMULATION\DEBUG\GRIDCELL.OBJ
^\\BANNER.MAIN.AD.RIT.EDU\STUDENTS\SXT5244\IGMPROFILE\DESKTOP\FLUID-SIMULATION\FLUIDSIMULATION\INPUTHANDLER.CPP
\\BANNER.MAIN.AD.RIT.EDU\STUDENTS\SXT5244\IGMPROFILE\DESKTOP\FLUID-SIMULATION\FLUIDSIMULATION\DEBUG\VC120.PDB
^\\BANNER.MAIN.AD.RIT.EDU\STUDENTS\SXT5244\IGMPROFILE\DESKTOP\FLUID-SIMULATION\FLUIDSIMULATION\MAIN.CPP
\\BANNER.MAIN.AD.RIT.EDU\STUDENTS\SXT5244\IGMPROFILE\DESKTOP\FLUID-SIMULATION\FLUIDSIMULATION\DEBUG\VC120.PDB
^\\BANNER.MAIN.AD.RIT.EDU\STUDENTS\SXT5244\IGMPROFILE\DESKTOP\FLUID-SIMULATION\FLUIDSIMULATION\MESH.CPP
\\BANNER.MAIN.AD.RIT.EDU\STUDENTS\SXT5244\IGMPROFILE\DESKTOP\FLUID-SIMULATION\FLUIDSIMULATION\DEBUG\VC120.PDB
^\\BANNER.MAIN.AD.RIT.EDU\STUDENTS\SXT5244\IGMPROFILE\DESKTOP\FLUID-SIMULATION\FLUIDSIMULATION\SQUARE.CPP
\\BANNER.MAIN.AD.RIT.EDU\STUDENTS\SXT5244\IGMPROFILE\DESKTOP\FLUID-SIMULATION\FLUIDSIMULATION\DEBUG\VC120.PDB
^\\BANNER.MAIN.AD.RIT.EDU\STUDENTS\SXT5244\IGMPROFILE\DESKTOP\FLUID-SIMULATION\FLUIDSIMULATION\WINDOW.CPP
\\BANNER.MAIN.AD.RIT.EDU\STUDENTS\SXT5244\IGMPROFILE\DESKTOP\FLUID-SIMULATION\FLUIDSIMULATION\DEBUG\VC120.PDB
^\\BANNER.MAIN.AD.RIT.EDU\STUDENTS\SXT5244\IGMPROFILE\DESKTOP\FLUID-SIMULATION\FLUIDSIMULATION\CIRCLE.CPP|\\BANNER.MAIN.AD.RIT.EDU\STUDENTS\SXT5244\IGMPROFILE\DESKTOP\FLUID-SIMULATION\FLUIDSIMULATION\GAME.CPP|\\BANNER.MAIN.AD.RIT.EDU\STUDENTS\SXT5244\IGMPROFILE\DESKTOP\FLUID-SIMULATION\FLUIDSIMULATION\INPUTHANDLER.CPP|\\BANNER.MAIN.AD.RIT.EDU\STUDENTS\SXT5244\IGMPROFILE\DESKTOP\FLUID-SIMULATION\FLUIDSIMULATION\MAIN.CPP
\\BANNER.MAIN.AD.RIT.EDU\STUDENTS\SXT5244\IGMPROFILE\DESKTOP\FLUID-SIMULATION\FLUIDSIMULATION\DEBUG\VC120.PDB
\\BANNER.MAIN.AD.RIT.EDU\STUDENTS\SXT5244\IGMPROFILE\DESKTOP\FLUID-SIMULATION\FLUIDSIMULATION\DEBUG\VC120.IDB
\\BANNER.MAIN.AD.RIT.EDU\STUDENTS\SXT5244\IGMPROFILE\DESKTOP\FLUID-SIMULATION\FLUIDSIMULATION\DEBUG\CIRCLE.OBJ
\\BANNER.MAIN.AD.RIT.EDU\STUDENTS\SXT5244\IGMPROFILE\DESKTOP\FLUID-SIMULATION\FLUIDSIMULATION\DEBUG\GAME.OBJ
\\BANNER.MAIN.AD.RIT.EDU\STUDENTS\SXT5244\IGMPROFILE\DESKTOP\FLUID-SIMULATION\FLUIDSIMULATION\DEBUG\INPUTHANDLER.OBJ
\\BANNER.MAIN.AD.RIT.EDU\STUDENTS\SXT5244\IGMPROFILE\DESKTOP\FLUID-SIMULATION\FLUIDSIMULATION\DEBUG\MAIN.OBJ
